2016/03/05 10:26:01 Failed to create logger: open /Library/Timeglass/daemon.log: permission denied
2016/03/05 13:21:07 Failed to create logger: open /Library/Timeglass/daemon.log: permission denied
2016/03/05 13:21:08 Failed to create logger: open /Library/Timeglass/daemon.log: permission denied
2016/03/05 13:32:55 Failed to create logger: open /Library/Timeglass/daemon.log: permission denied
2016/03/05 13:39:35 Failed to create logger: open /Library/Timeglass/daemon.log: permission denied
2016/03/05 22:08:33 Failed to create logger: open /Library/Timeglass/daemon.log: permission denied
2016/03/05 22:08:37 Failed to create logger: open /Library/Timeglass/daemon.log: permission denied
2016/03/05 22:08:38 Failed to create logger: open /Library/Timeglass/daemon.log: permission denied
2016/03/05 22:08:40 Failed to create logger: open /Library/Timeglass/daemon.log: permission denied
2016/03/05 22:08:41 Failed to create logger: open /Library/Timeglass/daemon.log: permission denied
2016/03/05 22:08:41 Failed to create logger: open /Library/Timeglass/daemon.log: permission denied
2016/03/10 02:11:34 Failed to create logger: open /Library/Timeglass/daemon.log: permission denied
2016/03/10 02:13:34 Failed to create logger: open /Library/Timeglass/daemon.log: permission denied
2016/03/10 02:13:34 Failed to create logger: open /Library/Timeglass/daemon.log: permission denied
2016/03/17 22:05:32 Failed to create logger: open /Library/Timeglass/daemon.log: permission denied
2016/03/22 01:10:01 Failed to create logger: open /Library/Timeglass/daemon.log: permission denied
2016/03/22 01:10:01 Failed to create logger: open /Library/Timeglass/daemon.log: permission denied
2016/03/22 01:10:02 Failed to create logger: open /Library/Timeglass/daemon.log: permission denied
2016/03/22 01:11:11 Failed to create logger: open /Library/Timeglass/daemon.log: permission denied
2016/03/22 01:11:11 Failed to create logger: open /Library/Timeglass/daemon.log: permission denied
2016/03/22 01:11:14 Failed to create logger: open /Library/Timeglass/daemon.log: permission denied
2016/03/25 03:33:42 Failed to create logger: open /Library/Timeglass/daemon.log: permission denied
2016/03/25 03:34:00 Failed to create logger: open /Library/Timeglass/daemon.log: permission denied
2016/03/25 03:34:01 Failed to create logger: open /Library/Timeglass/daemon.log: permission denied
2016/03/27 10:27:26 Failed to create logger: open /Library/Timeglass/daemon.log: permission denied
nohup: glass-daemon: No such file or directory
nohup: glass-daemon: No such file or directory
nohup: glass-daemon: No such file or directory
nohup: glass-daemon: No such file or directory
